Apresentação da proposta
…
## Observations: 34,602
## Variables: 4
## $ speaker  <chr> "Sokka", "Sokka", "Sokka", "Sokka", "Sokka", "Sokka",...
## $ epi_num  <int> 1, 1, 1, 1, 1, 1, 1, 1, 1, 1, 1, 1, 1, 1, 1, 1, 1, 1,...
## $ epi_name <fct> The Boy in the Iceberg, The Boy in the Iceberg, The B...
## $ word     <chr> "time", "watch", "learn", "katara", "catch", "fish", ...

Contagem de palavras por personagem (após remoção de stop words):

count_speaker = ut %>%
  count(speaker) %>%
  arrange(desc(n))
count_speaker

## # A tibble: 358 x 2
##    speaker     n
##    <chr>   <int>
##  1 Sokka    5521
##  2 Aang     5027
##  3 Katara   4102
##  4 Zuko     2374
##  5 Iroh     1658
##  6 Toph     1489
##  7 Azula     944
##  8 Zhao      566
##  9 Jet       455
## 10 Hakoda    341
## # ... with 348 more rows
…
